// Jest Snapshot v1, https://goo.gl/fbAQLP

exports[`App it renders correctly 1`] = `
<div
  className="App"
>
  <Connect(Header) />
  <Route
    component={[Function]}
    exact={true}
    path="/"
  />
  <Route
    component={[Function]}
    exact={true}
    path="/Basket"
  />
</div>
`;
